{
	"list": [{
		"orderId": "842530984765-01",
		"creationDate": "2018-06-27T05:16:20.0000000+00:00",
		"clientName": "Luis Morales",
		"items": [{
			"seller": "1",
			"quantity": 1,
			"description": "Pantaloncillo B\u00f3xer Medio Estampado Azul XL",
			"ean": "7704863998766",
			"refId": "44000193-5064-Azul-XL",
			"id": "2086859",
			"productId": "2007061",
			"sellingPrice": 1049400,
			"price": 1049400
		}, {
			"seller": "1",
			"quantity": 1,
			"description": "Pantaloncillo B\u00f3xer Medio Estampado Morado XL",
			"ean": "7704863998889",
			"refId": "44000193-74924-Morado-XL",
			"id": "2086865",
			"productId": "2007061",
			"sellingPrice": 1049400,
			"price": 1049400
		}, {
			"seller": "1",
			"quantity": 1,
			"description": "Pantaloncillo Boxer Estampado Azul Oscuro XL",
			"ean": "7702218788512",
			"refId": "44000034-51-XL",
			"id": "2001743",
			"productId": "2000045",
			"sellingPrice": 1049400,
			"price": 1049400
		}],
		"totalValue": 3748200,
		"paymentNames": "Visa",
		"status": "handling",
		"statusDescription": "Preparando Entrega",
		"marketPlaceOrderId": null,
		"sequence": "10198287",
		"salesChannel": "1",
		"affiliateId": "",
		"origin": "Marketplace",
		"workflowInErrorState": false,
		"workflowInRetry": false,
		"lastMessageUnread": " PatPrimo HOMBRE MUJER TALLAS 14 - 24 SALE Pedido realizado con \u00e9xito! realizado en: 27\/06\/2018 Hola, Luis \u00a1Gracias por comprar en: www.patp",
		"ShippingEstimatedDate": "2018-07-04T05:17:07.0000000+00:00",
		"orderIsComplete": true,
		"listId": null,
		"listType": null,
		"authorizedDate": "2018-06-27T05:17:08.0000000+00:00",
		"callCenterOperatorName": null
	}],
	"facets": [],
	"paging": {
		"total": 52816,
		"pages": 52816,
		"currentPage": 1,
		"perPage": 1
	},
	"stats": {
		"stats": {
			"totalValue": {
				"Count": 52816,
				"Max": 0,
				"Mean": 0,
				"Min": 0,
				"Missing": 0,
				"StdDev": 0,
				"Sum": 0,
				"SumOfSquares": 0,
				"Facets": []
			},
			"totalItems": {
				"Count": 52816,
				"Max": 0,
				"Mean": 0,
				"Min": 0,
				"Missing": 0,
				"StdDev": 0,
				"Sum": 0,
				"SumOfSquares": 0,
				"Facets": []
			}
		}
	}
}